{
	"source": "UE",
	"applications": [
		{
			"app_key": "application.generated.ue.twinstickshooter-13594126.ue4editor.exe",
			"launch_type": "url",
			"url": "steam://launch/",
			"action_manifest_path": "C:/Users/Gabe/Documents/GitHub/Learning/unreal-fast-track-2020/Week 4/TwinStickShooter/Config/SteamVRBindings/steamvr_manifest.json",
			"strings":
			{
				"en_us":
				{
					"name": "TwinStickShooter-13594126 [UE Editor]"
				}
			}
		}
	]
}